%YAML 1.1
%TAG !u! tag:unity3d.com,2011:
--- !u!114 &11400000
MonoBehaviour:
  m_ObjectHideFlags: 0
  m_PrefabParentObject: {fileID: 0}
  m_PrefabInternal: {fileID: 0}
  m_GameObject: {fileID: 0}
  m_Enabled: 1
  m_EditorHideFlags: 0
  m_Script: {fileID: 11500000, guid: 17e62d8d078be49cf8ad9ebe2efcaeb2, type: 3}
  m_Name: Demo2D_SpeechManager
  m_EditorClassIdentifier: 
  textScrollSpeed: 50
  textScrollCLip: {fileID: 0}
  displayForever: 0
  screenTimeFactor: .100000001
  allowSpeechSkipping: 1
  allowGameplaySpeechSkipping: 0
  searchAudioFiles: 1
  forceSubtitles: 1
  translateAudio: 1
  scrollSubtitles: 0
  endScrollBeforeSkip: 0
  keepTextInBuffer: 0
  separateLines: 0
  separateLinePause: .100000001
  lines: []
  languages:
  - Original
  sceneFiles: []
  ignoreOriginalText: 0
  usePlayerRealName: 0
  lipSyncMode: 0
  lipSyncOutput: 1
  phonemes:
  - A/I
  - E
  - O
  - U
  - M/B/P
  - C/D/G/K/N/R/S/Th/Y/Z
  - L
  - F/V
  - W/Q
  lipSyncSpeed: 1
